…
    cat("\nMissing Values Summary:\n")

    #> 
    #> Missing Values Summary:

    print(quality_report$missing_values)

    #> # A tibble: 39 × 3
    #>    variable      n_miss pct_miss
    #>    <chr>          <int>    <num>
    #>  1 invoice_id         0        0
    #>  2 branch             0        0
    #>  3 city               0        0
    #>  4 customer_type      0        0
    #>  5 gender             0        0
    #>  6 product_line       0        0
    #>  7 unit_price         0        0
    #>  8 quantity           0        0
    #>  9 tax_5_percent      0        0
    #> 10 total              0        0
    #> # ℹ 29 more rows
…
